[
  {
    "_id": {
      "$oid": "655cc02a8c5529bc9233baf8"
    },
    "source": "Hẻm 156 Võ Văn Ngân Phường Bình Thọ, Thành Phố Thủ Đức, Thành Phố Hồ Chí Minh",
    "sourceCoordinates": [
      106.761436,
      10.84947
    ],
    "destination": "Hẻm 300 Lê Văn Việt Phường Tăng Nhơn Phú B, Thành Phố Thủ Đức, Thành Phố Hồ Chí Minh",
    "destinationCoordinates": [
      106.785464,
      10.843393
    ],
    "PhoneCustomer": "346680879",
    "NameCustomer": "Anh Tài",
    "distance": 5.17,
    "price": 41.32,
    "userId": {
      "$oid": "655cc02a4e638bae83ba4d43"
    },
    "selectedCar": {
      "$oid": "653a6650920751bfe05a2c6e"
    },
    "driverId": {
      "$oid": "655cc02a66c69a91b1b1e565"
    },
    "status": "complete",
    "createdAt": {
      "$date": "2023-01-09T23:23:17.000Z"
    },
    "updatedAt": {
      "$date": "2023-01-16T22:53:26.000Z"
    },
    "__v": 0
  },
  {
    "_id": {
      "$oid": "655cc02a1d0c8b3104b8b9b7"
    },
    "source": "Hẻm 156 Võ Văn Ngân Phường Bình Thọ, Thành Phố Thủ Đức, Thành Phố Hồ Chí Minh",
    "sourceCoordinates": [
      106.761436,
      10.84947
    ],
    "destination": "Hẻm 300 Lê Văn Việt Phường Tăng Nhơn Phú B, Thành Phố Thủ Đức, Thành Phố Hồ Chí Minh",
    "destinationCoordinates": [
      106.785464,
      10.843393
    ],
    "PhoneCustomer": "346680879",
    "NameCustomer": "Anh Tài",
    "distance": 9.97,
    "price": 46.81,
    "userId": {
      "$oid": "655cc02ae11ec194eb30c4a5"
    },
    "selectedCar": {
      "$oid": "653a6650920751bfe05a2c6e"
    },
    "driverId": {
      "$oid": "655cc02a6aed29622f3c850c"
    },
    "status": "complete",
    "createdAt": {
      "$date": "2023-01-28T03:54:31.000Z"
    },
    "updatedAt": {
      "$date": "2023-01-26T17:02:01.000Z"
    },
    "__v": 0
  },
  {
    "_id": {
      "$oid": "655cc02a4800ad57ec7cae66"
    },
    "source": "Hẻm 156 Võ Văn Ngân Phường Bình Thọ, Thành Phố Thủ Đức, Thành Phố Hồ Chí Minh",
    "sourceCoordinates": [
      106.761436,
      10.84947
    ],
    "destination": "Hẻm 300 Lê Văn Việt Phường Tăng Nhơn Phú B, Thành Phố Thủ Đức, Thành Phố Hồ Chí Minh",
    "destinationCoordinates": [
      106.785464,
      10.843393
    ],
    "PhoneCustomer": "346680879",
    "NameCustomer": "Anh Tài",
    "distance": 9.74,
    "price": 27.72,
    "userId": {
      "$oid": "655cc02ad0faee995c9b544f"
    },
    "selectedCar": {
      "$oid": "653a6650920751bfe05a2c6e"
    },
    "driverId": {
      "$oid": "655cc02a83f2b265c1e2199d"
    },
    "status": "complete",
    "createdAt": {
      "$date": "2022-12-31T17:11:52.000Z"
    },
    "updatedAt": {
      "$date": "2023-01-23T22:43:30.000Z"
    },
    "__v": 0
  },
  {
    "_id": {
      "$oid": "655cc02a0790e7fd4d23669e"
    },
    "source": "Hẻm 156 Võ Văn Ngân Phường Bình Thọ, Thành Phố Thủ Đức, Thành Phố Hồ Chí Minh",
    "sourceCoordinates": [
      106.761436,
      10.84947
    ],
    "destination": "Hẻm 300 Lê Văn Việt Phường Tăng Nhơn Phú B, Thành Phố Thủ Đức, Thành Phố Hồ Chí Minh",
    "destinationCoordinates": [
      106.785464,
      10.843393
    ],
    "PhoneCustomer": "346680879",
    "NameCustomer": "Anh Tài",
    "distance": 1.97,
    "price": 47.83,
    "userId": {
      "$oid": "655cc02ace77e44ca44a937a"
    },
    "selectedCar": {
      "$oid": "653a6650920751bfe05a2c6e"
    },
    "driverId": {
      "$oid": "655cc02a0ce288f905602e3d"
    },
    "status": "complete",
    "createdAt": {
      "$date": "2023-01-02T05:01:49.000Z"
    },
    "updatedAt": {
      "$date": "2023-01-14T21:28:52.000Z"
    },
    "__v": 0
  },
  {
    "_id": {
      "$oid": "655cc02a299f06c0faab04a7"
    },
    "source": "Hẻm 156 Võ Văn Ngân Phường Bình Thọ, Thành Phố Thủ Đức, Thành Phố Hồ Chí Minh",
    "sourceCoordinates": [
      106.761436,
      10.84947
    ],
    "destination": "Hẻm 300 Lê Văn Việt Phường Tăng Nhơn Phú B, Thành Phố Thủ Đức, Thành Phố Hồ Chí Minh",
    "destinationCoordinates": [
      106.785464,
      10.843393
    ],
    "PhoneCustomer": "346680879",
    "NameCustomer": "Anh Tài",
    "distance": 5.01,
    "price": 40.96,
    "userId": {
      "$oid": "655cc02aff5aab806bf2e36f"
    },
    "selectedCar": {
      "$oid": "653a6650920751bfe05a2c6e"
    },
    "driverId": {
      "$oid": "655cc02a83f2b265c1e2199d"
    },
    "status": "complete",
    "createdAt": {
      "$date": "2022-12-31T19:26:21.000Z"
    },
    "updatedAt": {
      "$date": "2023-01-09T16:18:59.000Z"
    },
    "__v": 0
  },
  {
    "_id": {
      "$oid": "655cc02a66f7e196d0cb4da1"
    },
    "source": "Hẻm 156 Võ Văn Ngân Phường Bình Thọ, Thành Phố Thủ Đức, Thành Phố Hồ Chí Minh",
    "sourceCoordinates": [
      106.761436,
      10.84947
    ],
    "destination": "Hẻm 300 Lê Văn Việt Phường Tăng Nhơn Phú B, Thành Phố Thủ Đức, Thành Phố Hồ Chí Minh",
    "destinationCoordinates": [
      106.785464,
      10.843393
    ],
    "PhoneCustomer": "346680879",
    "NameCustomer": "Anh Tài",
    "distance": 9.56,
    "price": 28.47,
    "userId": {
      "$oid": "655cc02a78ce7000c730fd09"
    },
    "selectedCar": {
      "$oid": "653a6650920751bfe05a2c6e"
    },
    "driverId": {
      "$oid": "655cc02a83f2b265c1e2199d"
    },
    "status": "complete",
    "createdAt": {
      "$date": "2023-02-25T18:38:58.000Z"
    },
    "updatedAt": {
      "$date": "2023-02-20T09:01:10.000Z"
    },
    "__v": 0
  },
  {
    "_id": {
      "$oid": "655cc02a74dcec0e81825b02"
    },
    "source": "Hẻm 156 Võ Văn Ngân Phường Bình Thọ, Thành Phố Thủ Đức, Thành Phố Hồ Chí Minh",
    "sourceCoordinates": [
      106.761436,
      10.84947
    ],
    "destination": "Hẻm 300 Lê Văn Việt Phường Tăng Nhơn Phú B, Thành Phố Thủ Đức, Thành Phố Hồ Chí Minh",
    "destinationCoordinates": [
      106.785464,
      10.843393
    ],
    "PhoneCustomer": "346680879",
    "NameCustomer": "Anh Tài",
    "distance": 8.52,
    "price": 33.78,
    "userId": {
      "$oid": "655cc02aae61254404d1eeb4"
    },
    "selectedCar": {
      "$oid": "653a6650920751bfe05a2c6e"
    },
    "driverId": {
      "$oid": "655cc02a66c69a91b1b1e565"
    },
    "status": "complete",
    "createdAt": {
      "$date": "2023-02-12T23:47:46.000Z"
    },
    "updatedAt": {
      "$date": "2023-02-24T18:13:50.000Z"
    },
    "__v": 0
  },
  {
    "_id": {
      "$oid": "655cc02ab9462f926c3d2544"
    },
    "source": "Hẻm 156 Võ Văn Ngân Phường Bình Thọ, Thành Phố Thủ Đức, Thành Phố Hồ Chí Minh",
    "sourceCoordinates": [
      106.761436,
      10.84947
    ],
    "destination": "Hẻm 300 Lê Văn Việt Phường Tăng Nhơn Phú B, Thành Phố Thủ Đức, Thành Phố Hồ Chí Minh",
    "destinationCoordinates": [
      106.785464,
      10.843393
    ],
    "PhoneCustomer": "346680879",
    "NameCustomer": "Anh Tài",
    "distance": 1.99,
    "price": 22.55,
    "userId": {
      "$oid": "655cc02a128476f437c245bb"
    },
    "selectedCar": {
      "$oid": "653a6650920751bfe05a2c6e"
    },
    "driverId": {
      "$oid": "655cc02aee82d409d8d61dc5"
    },
    "status": "complete",
    "createdAt": {
      "$date": "2023-02-15T06:57:48.000Z"
    },
    "updatedAt": {
      "$date": "2023-02-10T20:30:07.000Z"
    },
    "__v": 0
  },
  {
    "_id": {
      "$oid": "655cc02a68965c7536c746fa"
    },
    "source": "Hẻm 156 Võ Văn Ngân Phường Bình Thọ, Thành Phố Thủ Đức, Thành Phố Hồ Chí Minh",
    "sourceCoordinates": [
      106.761436,
      10.84947
    ],
    "destination": "Hẻm 300 Lê Văn Việt Phường Tăng Nhơn Phú B, Thành Phố Thủ Đức, Thành Phố Hồ Chí Minh",
    "destinationCoordinates": [
      106.785464,
      10.843393
    ],
    "PhoneCustomer": "346680879",
    "NameCustomer": "Anh Tài",
    "distance": 5.47,
    "price": 37.88,
    "userId": {
      "$oid": "655cc02aff5aab806bf2e36f"
    },
    "selectedCar": {
      "$oid": "653a6650920751bfe05a2c6e"
    },
    "driverId": {
      "$oid": "655cc02a0ce288f905602e3d"
    },
    "status": "complete",
    "createdAt": {
      "$date": "2023-02-21T04:33:02.000Z"
    },
    "updatedAt": {
      "$date": "2023-02-08T16:34:42.000Z"
    },
    "__v": 0
  },
  {
    "_id": {
      "$oid": "655cc02a0d4b4136a513c38c"
    },
    "source": "Hẻm 156 Võ Văn Ngân Phường Bình Thọ, Thành Phố Thủ Đức, Thành Phố Hồ Chí Minh",
    "sourceCoordinates": [
      106.761436,
      10.84947
    ],
    "destination": "Hẻm 300 Lê Văn Việt Phường Tăng Nhơn Phú B, Thành Phố Thủ Đức, Thành Phố Hồ Chí Minh",
    "destinationCoordinates": [
      106.785464,
      10.843393
    ],
    "PhoneCustomer": "346680879",
    "NameCustomer": "Anh Tài",
    "distance": 5.38,
    "price": 37.27,
    "userId": {
      "$oid": "655cc02ad0faee995c9b544f"
    },
    "selectedCar": {
      "$oid": "653a6650920751bfe05a2c6e"
    },
    "driverId": {
      "$oid": "655cc02a83f2b265c1e2199d"
    },
    "status": "complete",
    "createdAt": {
      "$date": "2023-02-11T10:28:04.000Z"
    },
    "updatedAt": {
      "$date": "2023-02-02T16:18:45.000Z"
    },
    "__v": 0
  },
  {
    "_id": {
      "$oid": "655cc02a8932f1308df93f37"
    },
    "source": "Hẻm 156 Võ Văn Ngân Phường Bình Thọ, Thành Phố Thủ Đức, Thành Phố Hồ Chí Minh",
    "sourceCoordinates": [
      106.761436,
      10.84947
    ],
    "destination": "Hẻm 300 Lê Văn Việt Phường Tăng Nhơn Phú B, Thành Phố Thủ Đức, Thành Phố Hồ Chí Minh",
    "destinationCoordinates": [
      106.785464,
      10.843393
    ],
    "PhoneCustomer": "346680879",
    "NameCustomer": "Anh Tài",
    "distance": 1.62,
    "price": 31.27,
    "userId": {
      "$oid": "655cc02a4e638bae83ba4d43"
    },
    "selectedCar": {
      "$oid": "653a6650920751bfe05a2c6e"
    },
    "driverId": {
      "$oid": "655cc02aee82d409d8d61dc5"
    },
    "status": "complete",
    "createdAt": {
      "$date": "2023-03-17T19:02:22.000Z"
    },
    "updatedAt": {
      "$date": "2023-03-25T14:30:12.000Z"
    },
    "__v": 0
  },
  {
    "_id": {
      "$oid": "655cc02a033b7c978cca5634"
    },
    "source": "Hẻm 156 Võ Văn Ngân Phường Bình Thọ, Thành Phố Thủ Đức, Thành Phố Hồ Chí Minh",
    "sourceCoordinates": [
      106.761436,
      10.84947
    ],
    "destination": "Hẻm 300 Lê Văn Việt Phường Tăng Nhơn Phú B, Thành Phố Thủ Đức, Thành Phố Hồ Chí Minh",
    "destinationCoordinates": [
      106.785464,
      10.843393
    ],
    "PhoneCustomer": "346680879",
    "NameCustomer": "Anh Tài",
    "distance": 8.65,
    "price": 37.15,
    "userId": {
      "$oid": "655cc02a323156d8c4fd8a3d"
    },
    "selectedCar": {
      "$oid": "653a6650920751bfe05a2c6e"
    },
    "driverId": {
      "$oid": "655cc02ade9796ac472085dc"
    },
    "status": "complete",
    "createdAt": {
      "$date": "2023-03-13T13:10:08.000Z"
    },
    "updatedAt": {
      "$date": "2023-03-22T20:36:22.000Z"
    },
    "__v": 0
  },
  {
    "_id": {
      "$oid": "655cc02a24aa772142e8cfbd"
    },
    "source": "Hẻm 156 Võ Văn Ngân Phường Bình Thọ, Thành Phố Thủ Đức, Thành Phố Hồ Chí Minh",
    "sourceCoordinates": [
      106.761436,
      10.84947
    ],
    "destination": "Hẻm 300 Lê Văn Việt Phường Tăng Nhơn Phú B, Thành Phố Thủ Đức, Thành Phố Hồ Chí Minh",
    "destinationCoordinates": [
      106.785464,
      10.843393
    ],
    "PhoneCustomer": "346680879",
    "NameCustomer": "Anh Tài",
    "distance": 9.2,
    "price": 23.17,
    "userId": {
      "$oid": "655cc02aefd3eddc2182a6ee"
    },
    "selectedCar": {
      "$oid": "653a6650920751bfe05a2c6e"
    },
    "driverId": {
      "$oid": "655cc02a63968f4c919d59e9"
    },
    "status": "complete",
    "createdAt": {
      "$date": "2023-03-21T22:18:05.000Z"
    },
    "updatedAt": {
      "$date": "2023-03-16T19:35:07.000Z"
    },
    "__v": 0
  },
  {
    "_id": {
      "$oid": "655cc02ab5348ac52da6c885"
    },
    "source": "Hẻm 156 Võ Văn Ngân Phường Bình Thọ, Thành Phố Thủ Đức, Thành Phố Hồ Chí Minh",
    "sourceCoordinates": [
      106.761436,
      10.84947
    ],
    "destination": "Hẻm 300 Lê Văn Việt Phường Tăng Nhơn Phú B, Thành Phố Thủ Đức, Thành Phố Hồ Chí Minh",
    "destinationCoordinates": [
      106.785464,
      10.843393
    ],
    "PhoneCustomer": "346680879",
    "NameCustomer": "Anh Tài",
    "distance": 1.67,
    "price": 33.94,
    "userId": {
      "$oid": "655cc02a8d0f2bdb56ff0277"
    },
    "selectedCar": {
      "$oid": "653a6650920751bfe05a2c6e"
    },
    "driverId": {
      "$oid": "655cc02ac54a9173713b5dd2"
    },
    "status": "complete",
    "createdAt": {
      "$date": "2023-03-09T20:57:12.000Z"
    },
    "updatedAt": {
      "$date": "2023-03-10T23:28:03.000Z"
    },
    "__v": 0
  },
  {
    "_id": {
      "$oid": "655cc02a4d44b7f774f0a57d"
    },
    "source": "Hẻm 156 Võ Văn Ngân Phường Bình Thọ, Thành Phố Thủ Đức, Thành Phố Hồ Chí Minh",
    "sourceCoordinates": [
      106.761436,
      10.84947
    ],
    "destination": "Hẻm 300 Lê Văn Việt Phường Tăng Nhơn Phú B, Thành Phố Thủ Đức, Thành Phố Hồ Chí Minh",
    "destinationCoordinates": [
      106.785464,
      10.843393
    ],
    "PhoneCustomer": "346680879",
    "NameCustomer": "Anh Tài",
    "distance": 4.46,
    "price": 33.25,
    "userId": {
      "$oid": "655cc02a6b5f499e6f48d560"
    },
    "selectedCar": {
      "$oid": "653a6650920751bfe05a2c6e"
    },
    "driverId": {
      "$oid": "655cc02a63968f4c919d59e9"
    },
    "status": "complete",
    "createdAt": {
      "$date": "2023-03-14T14:30:44.000Z"
    },
    "updatedAt": {
      "$date": "2023-03-27T23:59:26.000Z"
    },
    "__v": 0
  },
  {
    "_id": {
      "$oid": "655cc02acabe098698aeb893"
    },
    "source": "Hẻm 156 Võ Văn Ngân Phường Bình Thọ, Thành Phố Thủ Đức, Thành Phố Hồ Chí Minh",
    "sourceCoordinates": [
      106.761436,
      10.84947
    ],
    "destination": "Hẻm 300 Lê Văn Việt Phường Tăng Nhơn Phú B, Thành Phố Thủ Đức, Thành Phố Hồ Chí Minh",
    "destinationCoordinates": [
      106.785464,
      10.843393
    ],
    "PhoneCustomer": "346680879",
    "NameCustomer": "Anh Tài",
    "distance": 7.41,
    "price": 47.3,
    "userId": {
      "$oid": "655cc02a0b16d7ecdcba3fdb"
    },
    "selectedCar": {
      "$oid": "653a6650920751bfe05a2c6e"
    },
    "driverId": {
      "$oid": "655cc02a63968f4c919d59e9"
    },
    "status": "complete",
    "createdAt": {
      "$date": "2023-04-21T23:05:35.000Z"
    },
    "updatedAt": {
      "$date": "2023-04-13T10:53:08.000Z"
    },
    "__v": 0
  },
  {
    "_id": {
      "$oid": "655cc02a80a2663a72c00af5"
    },
    "source": "Hẻm 156 Võ Văn Ngân Phường Bình Thọ, Thành Phố Thủ Đức, Thành Phố Hồ Chí Minh",
    "sourceCoordinates": [
      106.761436,
      10.84947
    ],
    "destination": "Hẻm 300 Lê Văn Việt Phường Tăng Nhơn Phú B, Thành Phố Thủ Đức, Thành Phố Hồ Chí Minh",
    "destinationCoordinates": [
      106.785464,
      10.843393
    ],
    "PhoneCustomer": "346680879",
    "NameCustomer": "Anh Tài",
    "distance": 3.39,
    "price": 32.69,
    "userId": {
      "$oid": "655cc02a20b7a0e63851ef5c"
    },
    "selectedCar": {
      "$oid": "653a6650920751bfe05a2c6e"
    },
    "driverId": {
      "$oid": "655cc02a6aed29622f3c850c"
    },
    "status": "complete",
    "createdAt": {
      "$date": "2023-04-22T17:03:29.000Z"
    },
    "updatedAt": {
      "$date": "2023-04-27T00:09:26.000Z"
    },
    "__v": 0
  },
  {
    "_id": {
      "$oid": "655cc02a5653d44b99556dd2"
    },
    "source": "Hẻm 156 Võ Văn Ngân Phường Bình Thọ, Thành Phố Thủ Đức, Thành Phố Hồ Chí Minh",
    "sourceCoordinates": [
      106.761436,
      10.84947
    ],
    "destination": "Hẻm 300 Lê Văn Việt Phường Tăng Nhơn Phú B, Thành Phố Thủ Đức, Thành Phố Hồ Chí Minh",
    "destinationCoordinates": [
      106.785464,
      10.843393
    ],
    "PhoneCustomer": "346680879",
    "NameCustomer": "Anh Tài",
    "distance": 3.89,
    "price": 39.55,
    "userId": {
      "$oid": "655cc02aeb334f3c51c64056"
    },
    "selectedCar": {
      "$oid": "653a6650920751bfe05a2c6e"
    },
    "driverId": {
      "$oid": "655cc02aee82d409d8d61dc5"
    },
    "status": "complete",
    "createdAt": {
      "$date": "2023-04-22T14:11:23.000Z"
    },
    "updatedAt": {
      "$date": "2023-04-17T09:17:20.000Z"
    },
    "__v": 0
  },
  {
    "_id": {
      "$oid": "655cc02afaa8402dd2b4b565"
    },
    "source": "Hẻm 156 Võ Văn Ngân Phường Bình Thọ, Thành Phố Thủ Đức, Thành Phố Hồ Chí Minh",
    "sourceCoordinates": [
      106.761436,
      10.84947
    ],
    "destination": "Hẻm 300 Lê Văn Việt Phường Tăng Nhơn Phú B, Thành Phố Thủ Đức, Thành Phố Hồ Chí Minh",
    "destinationCoordinates": [
      106.785464,
      10.843393
    ],
    "PhoneCustomer": "346680879",
    "NameCustomer": "Anh Tài",
    "distance": 8.31,
    "price": 31.63,
    "userId": {
      "$oid": "655cc02a70cc44b0757bb835"
    },
    "selectedCar": {
      "$oid": "653a6650920751bfe05a2c6e"
    },
    "driverId": {
      "$oid": "655cc02ade9796ac472085dc"
    },
    "status": "complete",
    "createdAt": {
      "$date": "2023-04-23T23:01:30.000Z"
    },
    "updatedAt": {
      "$date": "2023-04-07T05:55:10.000Z"
    },
    "__v": 0
  },
  {
    "_id": {
      "$oid": "655cc02ae7bf9327b15156d2"
    },
    "source": "Hẻm 156 Võ Văn Ngân Phường Bình Thọ, Thành Phố Thủ Đức, Thành Phố Hồ Chí Minh",
    "sourceCoordinates": [
      106.761436,
      10.84947
    ],
    "destination": "Hẻm 300 Lê Văn Việt Phường Tăng Nhơn Phú B, Thành Phố Thủ Đức, Thành Phố Hồ Chí Minh",
    "destinationCoordinates": [
      106.785464,
      10.843393
    ],
    "PhoneCustomer": "346680879",
    "NameCustomer": "Anh Tài",
    "distance": 2.64,
    "price": 21.08,
    "userId": {
      "$oid": "655cc02a4e638bae83ba4d43"
    },
    "selectedCar": {
      "$oid": "653a6650920751bfe05a2c6e"
    },
    "driverId": {
      "$oid": "655cc02aee82d409d8d61dc5"
    },
    "status": "complete",
    "createdAt": {
      "$date": "2023-04-10T07:02:45.000Z"
    },
    "updatedAt": {
      "$date": "2023-04-10T17:04:50.000Z"
    },
    "__v": 0
  },
  {
    "_id": {
      "$oid": "655cc02a5f7af40bbdf489bf"
    },
    "source": "Hẻm 156 Võ Văn Ngân Phường Bình Thọ, Thành Phố Thủ Đức, Thành Phố Hồ Chí Minh",
    "sourceCoordinates": [
      106.761436,
      10.84947
    ],
    "destination": "Hẻm 300 Lê Văn Việt Phường Tăng Nhơn Phú B, Thành Phố Thủ Đức, Thành Phố Hồ Chí Minh",
    "destinationCoordinates": [
      106.785464,
      10.843393
    ],
    "PhoneCustomer": "346680879",
    "NameCustomer": "Anh Tài",
    "distance": 8.83,
    "price": 36.5,
    "userId": {
      "$oid": "655cc02a551b4cfdc9ef787c"
    },
    "selectedCar": {
      "$oid": "653a6650920751bfe05a2c6e"
    },
    "driverId": {
      "$oid": "655cc02a83f2b265c1e2199d"
    },
    "status": "complete",
    "createdAt": {
      "$date": "2023-05-24T00:32:31.000Z"
    },
    "updatedAt": {
      "$date": "2023-05-25T16:54:52.000Z"
    },
    "__v": 0
  },
  {
    "_id": {
      "$oid": "655cc02ac0121cd735ed33a7"
    },
    "source": "Hẻm 156 Võ Văn Ngân Phường Bình Thọ, Thành Phố Thủ Đức, Thành Phố Hồ Chí Minh",
    "sourceCoordinates": [
      106.761436,
      10.84947
    ],
    "destination": "Hẻm 300 Lê Văn Việt Phường Tăng Nhơn Phú B, Thành Phố Thủ Đức, Thành Phố Hồ Chí Minh",
    "destinationCoordinates": [
      106.785464,
      10.843393
    ],
    "PhoneCustomer": "346680879",
    "NameCustomer": "Anh Tài",
    "distance": 6.27,
    "price": 36.06,
    "userId": {
      "$oid": "655cc02a6085af0e45e91738"
    },
    "selectedCar": {
      "$oid": "653a6650920751bfe05a2c6e"
    },
    "driverId": {
      "$oid": "655cc02a63968f4c919d59e9"
    },
    "status": "complete",
    "createdAt": {
      "$date": "2023-05-26T13:15:43.000Z"
    },
    "updatedAt": {
      "$date": "2023-05-19T01:40:17.000Z"
    },
    "__v": 0
  },
  {
    "_id": {
      "$oid": "655cc02ade1b3a316b142fe0"
    },
    "source": "Hẻm 156 Võ Văn Ngân Phường Bình Thọ, Thành Phố Thủ Đức, Thành Phố Hồ Chí Minh",
    "sourceCoordinates": [
      106.761436,
      10.84947
    ],
    "destination": "Hẻm 300 Lê Văn Việt Phường Tăng Nhơn Phú B, Thành Phố Thủ Đức, Thành Phố Hồ Chí Minh",
    "destinationCoordinates": [
      106.785464,
      10.843393
    ],
    "PhoneCustomer": "346680879",
    "NameCustomer": "Anh Tài",
    "distance": 8.73,
    "price": 41.74,
    "userId": {
      "$oid": "655cc02a6b5f499e6f48d560"
    },
    "selectedCar": {
      "$oid": "653a6650920751bfe05a2c6e"
    },
    "driverId": {
      "$oid": "655cc02a83f2b265c1e2199d"
    },
    "status": "complete",
    "createdAt": {
      "$date": "2023-05-06T04:10:57.000Z"
    },
    "updatedAt": {
      "$date": "2023-05-25T16:18:42.000Z"
    },
    "__v": 0
  },
  {
    "_id": {
      "$oid": "655cc02a7d60731c60e9ea1d"
    },
    "source": "Hẻm 156 Võ Văn Ngân Phường Bình Thọ, Thành Phố Thủ Đức, Thành Phố Hồ Chí Minh",
    "sourceCoordinates": [
      106.761436,
      10.84947
    ],
    "destination": "Hẻm 300 Lê Văn Việt Phường Tăng Nhơn Phú B, Thành Phố Thủ Đức, Thành Phố Hồ Chí Minh",
    "destinationCoordinates": [
      106.785464,
      10.843393
    ],
    "PhoneCustomer": "346680879",
    "NameCustomer": "Anh Tài",
    "distance": 1.39,
    "price": 44.29,
    "userId": {
      "$oid": "655cc02a5b36419997f89dd3"
    },
    "selectedCar": {
      "$oid": "653a6650920751bfe05a2c6e"
    },
    "driverId": {
      "$oid": "655cc02a048775a4adf1fe27"
    },
    "status": "complete",
    "createdAt": {
      "$date": "2023-05-13T05:04:39.000Z"
    },
    "updatedAt": {
      "$date": "2023-05-25T12:41:22.000Z"
    },
    "__v": 0
  },
  {
    "_id": {
      "$oid": "655cc02af9b8a4441214d4ac"
    },
    "source": "Hẻm 156 Võ Văn Ngân Phường Bình Thọ, Thành Phố Thủ Đức, Thành Phố Hồ Chí Minh",
    "sourceCoordinates": [
      106.761436,
      10.84947
    ],
    "destination": "Hẻm 300 Lê Văn Việt Phường Tăng Nhơn Phú B, Thành Phố Thủ Đức, Thành Phố Hồ Chí Minh",
    "destinationCoordinates": [
      106.785464,
      10.843393
    ],
    "PhoneCustomer": "346680879",
    "NameCustomer": "Anh Tài",
    "distance": 8.62,
    "price": 28.98,
    "userId": {
      "$oid": "655cc02ae11ec194eb30c4a5"
    },
    "selectedCar": {
      "$oid": "653a6650920751bfe05a2c6e"
    },
    "driverId": {
      "$oid": "655cc02a63968f4c919d59e9"
    },
    "status": "complete",
    "createdAt": {
      "$date": "2023-05-16T19:59:25.000Z"
    },
    "updatedAt": {
      "$date": "2023-05-04T12:29:09.000Z"
    },
    "__v": 0
  },
  {
    "_id": {
      "$oid": "655cc02afeb64ce109edbd8d"
    },
    "source": "Hẻm 156 Võ Văn Ngân Phường Bình Thọ, Thành Phố Thủ Đức, Thành Phố Hồ Chí Minh",
    "sourceCoordinates": [
      106.761436,
      10.84947
    ],
    "destination": "Hẻm 300 Lê Văn Việt Phường Tăng Nhơn Phú B, Thành Phố Thủ Đức, Thành Phố Hồ Chí Minh",
    "destinationCoordinates": [
      106.785464,
      10.843393
    ],
    "PhoneCustomer": "346680879",
    "NameCustomer": "Anh Tài",
    "distance": 6.86,
    "price": 43.98,
    "userId": {
      "$oid": "655cc02a0b9a84b8424efc8e"
    },
    "selectedCar": {
      "$oid": "653a6650920751bfe05a2c6e"
    },
    "driverId": {
      "$oid": "655cc02aee82d409d8d61dc5"
    },
    "status": "complete",
    "createdAt": {
      "$date": "2023-06-10T09:21:49.000Z"
    },
    "updatedAt": {
      "$date": "2023-06-05T01:09:41.000Z"
    },
    "__v": 0
  },
  {
    "_id": {
      "$oid": "655cc02a950b4678f98943be"
    },
    "source": "Hẻm 156 Võ Văn Ngân Phường Bình Thọ, Thành Phố Thủ Đức, Thành Phố Hồ Chí Minh",
    "sourceCoordinates": [
      106.761436,
      10.84947
    ],
    "destination": "Hẻm 300 Lê Văn Việt Phường Tăng Nhơn Phú B, Thành Phố Thủ Đức, Thành Phố Hồ Chí Minh",
    "destinationCoordinates": [
      106.785464,
      10.843393
    ],
    "PhoneCustomer": "346680879",
    "NameCustomer": "Anh Tài",
    "distance": 4.86,
    "price": 20.11,
    "userId": {
      "$oid": "655cc02a20b7a0e63851ef5c"
    },
    "selectedCar": {
      "$oid": "653a6650920751bfe05a2c6e"
    },
    "driverId": {
      "$oid": "655cc02a66c69a91b1b1e565"
    },
    "status": "complete",
    "createdAt": {
      "$date": "2023-06-18T20:23:57.000Z"
    },
    "updatedAt": {
      "$date": "2023-06-10T00:03:34.000Z"
    },
    "__v": 0
  },
  {
    "_id": {
      "$oid": "655cc02a063c5a2827685a83"
    },
    "source": "Hẻm 156 Võ Văn Ngân Phường Bình Thọ, Thành Phố Thủ Đức, Thành Phố Hồ Chí Minh",
    "sourceCoordinates": [
      106.761436,
      10.84947
    ],
    "destination": "Hẻm 300 Lê Văn Việt Phường Tăng Nhơn Phú B, Thành Phố Thủ Đức, Thành Phố Hồ Chí Minh",
    "destinationCoordinates": [
      106.785464,
      10.843393
    ],
    "PhoneCustomer": "346680879",
    "NameCustomer": "Anh Tài",
    "distance": 6.24,
    "price": 41.42,
    "userId": {
      "$oid": "655cc02a9e1e579f6d96edb5"
    },
    "selectedCar": {
      "$oid": "653a6650920751bfe05a2c6e"
    },
    "driverId": {
      "$oid": "655cc02a0ce288f905602e3d"
    },
    "status": "complete",
    "createdAt": {
      "$date": "2023-06-20T04:07:45.000Z"
    },
    "updatedAt": {
      "$date": "2023-06-22T09:53:26.000Z"
    },
    "__v": 0
  },
  {
    "_id": {
      "$oid": "655cc02a3825f4b3e833528b"
    },
    "source": "Hẻm 156 Võ Văn Ngân Phường Bình Thọ, Thành Phố Thủ Đức, Thành Phố Hồ Chí Minh",
    "sourceCoordinates": [
      106.761436,
      10.84947
    ],
    "destination": "Hẻm 300 Lê Văn Việt Phường Tăng Nhơn Phú B, Thành Phố Thủ Đức, Thành Phố Hồ Chí Minh",
    "destinationCoordinates": [
      106.785464,
      10.843393
    ],
    "PhoneCustomer": "346680879",
    "NameCustomer": "Anh Tài",
    "distance": 9.68,
    "price": 38.21,
    "userId": {
      "$oid": "655cc02a9c058ae8e2a7f7e7"
    },
    "selectedCar": {
      "$oid": "653a6650920751bfe05a2c6e"
    },
    "driverId": {
      "$oid": "655cc02a048775a4adf1fe27"
    },
    "status": "complete",
    "createdAt": {
      "$date": "2023-06-17T18:00:56.000Z"
    },
    "updatedAt": {
      "$date": "2023-06-15T22:04:54.000Z"
    },
    "__v": 0
  },
  {
    "_id": {
      "$oid": "655cc02abf135775a17515e8"
    },
    "source": "Hẻm 156 Võ Văn Ngân Phường Bình Thọ, Thành Phố Thủ Đức, Thành Phố Hồ Chí Minh",
    "sourceCoordinates": [
      106.761436,
      10.84947
    ],
    "destination": "Hẻm 300 Lê Văn Việt Phường Tăng Nhơn Phú B, Thành Phố Thủ Đức, Thành Phố Hồ Chí Minh",
    "destinationCoordinates": [
      106.785464,
      10.843393
    ],
    "PhoneCustomer": "346680879",
    "NameCustomer": "Anh Tài",
    "distance": 7.24,
    "price": 43.48,
    "userId": {
      "$oid": "655cc02aff5aab806bf2e36f"
    },
    "selectedCar": {
      "$oid": "653a6650920751bfe05a2c6e"
    },
    "driverId": {
      "$oid": "655cc02a0ce288f905602e3d"
    },
    "status": "complete",
    "createdAt": {
      "$date": "2023-06-27T16:09:14.000Z"
    },
    "updatedAt": {
      "$date": "2023-06-10T00:49:40.000Z"
    },
    "__v": 0
  },
  {
    "_id": {
      "$oid": "655cc02a6bbcab185e4db002"
    },
    "source": "Hẻm 156 Võ Văn Ngân Phường Bình Thọ, Thành Phố Thủ Đức, Thành Phố Hồ Chí Minh",
    "sourceCoordinates": [
      106.761436,
      10.84947
    ],
    "destination": "Hẻm 300 Lê Văn Việt Phường Tăng Nhơn Phú B, Thành Phố Thủ Đức, Thành Phố Hồ Chí Minh",
    "destinationCoordinates": [
      106.785464,
      10.843393
    ],
    "PhoneCustomer": "346680879",
    "NameCustomer": "Anh Tài",
    "distance": 6.92,
    "price": 31.91,
    "userId": {
      "$oid": "655cc02a6085af0e45e91738"
    },
    "selectedCar": {
      "$oid": "653a6650920751bfe05a2c6e"
    },
    "driverId": {
      "$oid": "655cc02a66c69a91b1b1e565"
    },
    "status": "complete",
    "createdAt": {
      "$date": "2023-07-18T18:00:47.000Z"
    },
    "updatedAt": {
      "$date": "2023-07-19T16:32:55.000Z"
    },
    "__v": 0
  },
  {
    "_id": {
      "$oid": "655cc02a554368a6a1b7fa7e"
    },
    "source": "Hẻm 156 Võ Văn Ngân Phường Bình Thọ, Thành Phố Thủ Đức, Thành Phố Hồ Chí Minh",
    "sourceCoordinates": [
      106.761436,
      10.84947
    ],
    "destination": "Hẻm 300 Lê Văn Việt Phường Tăng Nhơn Phú B, Thành Phố Thủ Đức, Thành Phố Hồ Chí Minh",
    "destinationCoordinates": [
      106.785464,
      10.843393
    ],
    "PhoneCustomer": "346680879",
    "NameCustomer": "Anh Tài",
    "distance": 5.02,
    "price": 38.15,
    "userId": {
      "$oid": "655cc02a20b7a0e63851ef5c"
    },
    "selectedCar": {
      "$oid": "653a6650920751bfe05a2c6e"
    },
    "driverId": {
      "$oid": "655cc02a6aed29622f3c850c"
    },
    "status": "complete",
    "createdAt": {
      "$date": "2023-07-20T11:24:34.000Z"
    },
    "updatedAt": {
      "$date": "2023-07-27T07:28:12.000Z"
    },
    "__v": 0
  },
  {
    "_id": {
      "$oid": "655cc02aeaf1b0709b24fefc"
    },
    "source": "Hẻm 156 Võ Văn Ngân Phường Bình Thọ, Thành Phố Thủ Đức, Thành Phố Hồ Chí Minh",
    "sourceCoordinates": [
      106.761436,
      10.84947
    ],
    "destination": "Hẻm 300 Lê Văn Việt Phường Tăng Nhơn Phú B, Thành Phố Thủ Đức, Thành Phố Hồ Chí Minh",
    "destinationCoordinates": [
      106.785464,
      10.843393
    ],
    "PhoneCustomer": "346680879",
    "NameCustomer": "Anh Tài",
    "distance": 9.45,
    "price": 47.06,
    "userId": {
      "$oid": "655cc02a0b9a84b8424efc8e"
    },
    "selectedCar": {
      "$oid": "653a6650920751bfe05a2c6e"
    },
    "driverId": {
      "$oid": "655cc02aee82d409d8d61dc5"
    },
    "status": "complete",
    "createdAt": {
      "$date": "2023-07-04T20:46:47.000Z"
    },
    "updatedAt": {
      "$date": "2023-07-05T07:19:53.000Z"
    },
    "__v": 0
  },
  {
    "_id": {
      "$oid": "655cc02aef8c4f9e0cf69207"
    },
    "source": "Hẻm 156 Võ Văn Ngân Phường Bình Thọ, Thành Phố Thủ Đức, Thành Phố Hồ Chí Minh",
    "sourceCoordinates": [
      106.761436,
      10.84947
    ],
    "destination": "Hẻm 300 Lê Văn Việt Phường Tăng Nhơn Phú B, Thành Phố Thủ Đức, Thành Phố Hồ Chí Minh",
    "destinationCoordinates": [
      106.785464,
      10.843393
    ],
    "PhoneCustomer": "346680879",
    "NameCustomer": "Anh Tài",
    "distance": 9.97,
    "price": 41.87,
    "userId": {
      "$oid": "655cc02a0764d81a67093c6e"
    },
    "selectedCar": {
      "$oid": "653a6650920751bfe05a2c6e"
    },
    "driverId": {
      "$oid": "655cc02a66c69a91b1b1e565"
    },
    "status": "complete",
    "createdAt": {
      "$date": "2023-07-16T13:15:33.000Z"
    },
    "updatedAt": {
      "$date": "2023-07-17T14:18:34.000Z"
    },
    "__v": 0
  },
  {
    "_id": {
      "$oid": "655cc02a7bc3ba1d237cf690"
    },
    "source": "Hẻm 156 Võ Văn Ngân Phường Bình Thọ, Thành Phố Thủ Đức, Thành Phố Hồ Chí Minh",
    "sourceCoordinates": [
      106.761436,
      10.84947
    ],
    "destination": "Hẻm 300 Lê Văn Việt Phường Tăng Nhơn Phú B, Thành Phố Thủ Đức, Thành Phố Hồ Chí Minh",
    "destinationCoordinates": [
      106.785464,
      10.843393
    ],
    "PhoneCustomer": "346680879",
    "NameCustomer": "Anh Tài",
    "distance": 6.55,
    "price": 31.4,
    "userId": {
      "$oid": "655cc02ada777364738449cd"
    },
    "selectedCar": {
      "$oid": "653a6650920751bfe05a2c6e"
    },
    "driverId": {
      "$oid": "655cc02a6aed29622f3c850c"
    },
    "status": "complete",
    "createdAt": {
      "$date": "2023-07-04T20:42:19.000Z"
    },
    "updatedAt": {
      "$date": "2023-07-28T14:15:46.000Z"
    },
    "__v": 0
  },
  {
    "_id": {
      "$oid": "655cc02ae035a2a44dacefe2"
    },
    "source": "Hẻm 156 Võ Văn Ngân Phường Bình Thọ, Thành Phố Thủ Đức, Thành Phố Hồ Chí Minh",
    "sourceCoordinates": [
      106.761436,
      10.84947
    ],
    "destination": "Hẻm 300 Lê Văn Việt Phường Tăng Nhơn Phú B, Thành Phố Thủ Đức, Thành Phố Hồ Chí Minh",
    "destinationCoordinates": [
      106.785464,
      10.843393
    ],
    "PhoneCustomer": "346680879",
    "NameCustomer": "Anh Tài",
    "distance": 3.33,
    "price": 45.39,
    "userId": {
      "$oid": "655cc02a20b7a0e63851ef5c"
    },
    "selectedCar": {
      "$oid": "653a6650920751bfe05a2c6e"
    },
    "driverId": {
      "$oid": "655cc02a0ce288f905602e3d"
    },
    "status": "complete",
    "createdAt": {
      "$date": "2023-08-13T09:17:43.000Z"
    },
    "updatedAt": {
      "$date": "2023-08-15T03:04:29.000Z"
    },
    "__v": 0
  },
  {
    "_id": {
      "$oid": "655cc02aebc460602d073794"
    },
    "source": "Hẻm 156 Võ Văn Ngân Phường Bình Thọ, Thành Phố Thủ Đức, Thành Phố Hồ Chí Minh",
    "sourceCoordinates": [
      106.761436,
      10.84947
    ],
    "destination": "Hẻm 300 Lê Văn Việt Phường Tăng Nhơn Phú B, Thành Phố Thủ Đức, Thành Phố Hồ Chí Minh",
    "destinationCoordinates": [
      106.785464,
      10.843393
    ],
    "PhoneCustomer": "346680879",
    "NameCustomer": "Anh Tài",
    "distance": 7.83,
    "price": 25.65,
    "userId": {
      "$oid": "655cc02aff5aab806bf2e36f"
    },
    "selectedCar": {
      "$oid": "653a6650920751bfe05a2c6e"
    },
    "driverId": {
      "$oid": "655cc02a83f2b265c1e2199d"
    },
    "status": "complete",
    "createdAt": {
      "$date": "2023-08-16T01:54:18.000Z"
    },
    "updatedAt": {
      "$date": "2023-08-04T02:34:49.000Z"
    },
    "__v": 0
  },
  {
    "_id": {
      "$oid": "655cc02abe1433e9d40530bf"
    },
    "source": "Hẻm 156 Võ Văn Ngân Phường Bình Thọ, Thành Phố Thủ Đức, Thành Phố Hồ Chí Minh",
    "sourceCoordinates": [
      106.761436,
      10.84947
    ],
    "destination": "Hẻm 300 Lê Văn Việt Phường Tăng Nhơn Phú B, Thành Phố Thủ Đức, Thành Phố Hồ Chí Minh",
    "destinationCoordinates": [
      106.785464,
      10.843393
    ],
    "PhoneCustomer": "346680879",
    "NameCustomer": "Anh Tài",
    "distance": 1.24,
    "price": 44.89,
    "userId": {
      "$oid": "655cc02a040623191d0e8e81"
    },
    "selectedCar": {
      "$oid": "653a6650920751bfe05a2c6e"
    },
    "driverId": {
      "$oid": "655cc02a048775a4adf1fe27"
    },
    "status": "complete",
    "createdAt": {
      "$date": "2023-08-12T01:05:47.000Z"
    },
    "updatedAt": {
      "$date": "2023-08-20T19:35:31.000Z"
    },
    "__v": 0
  },
  {
    "_id": {
      "$oid": "655cc02a85968c1b0e871cf8"
    },
    "source": "Hẻm 156 Võ Văn Ngân Phường Bình Thọ, Thành Phố Thủ Đức, Thành Phố Hồ Chí Minh",
    "sourceCoordinates": [
      106.761436,
      10.84947
    ],
    "destination": "Hẻm 300 Lê Văn Việt Phường Tăng Nhơn Phú B, Thành Phố Thủ Đức, Thành Phố Hồ Chí Minh",
    "destinationCoordinates": [
      106.785464,
      10.843393
    ],
    "PhoneCustomer": "346680879",
    "NameCustomer": "Anh Tài",
    "distance": 6.37,
    "price": 27.87,
    "userId": {
      "$oid": "655cc02ae11ec194eb30c4a5"
    },
    "selectedCar": {
      "$oid": "653a6650920751bfe05a2c6e"
    },
    "driverId": {
      "$oid": "655cc02a66c69a91b1b1e565"
    },
    "status": "complete",
    "createdAt": {
      "$date": "2023-08-25T06:45:39.000Z"
    },
    "updatedAt": {
      "$date": "2023-08-13T20:42:31.000Z"
    },
    "__v": 0
  },
  {
    "_id": {
      "$oid": "655cc02a4ea141f63e5ff1c7"
    },
    "source": "Hẻm 156 Võ Văn Ngân Phường Bình Thọ, Thành Phố Thủ Đức, Thành Phố Hồ Chí Minh",
    "sourceCoordinates": [
      106.761436,
      10.84947
    ],
    "destination": "Hẻm 300 Lê Văn Việt Phường Tăng Nhơn Phú B, Thành Phố Thủ Đức, Thành Phố Hồ Chí Minh",
    "destinationCoordinates": [
      106.785464,
      10.843393
    ],
    "PhoneCustomer": "346680879",
    "NameCustomer": "Anh Tài",
    "distance": 2.2,
    "price": 21.09,
    "userId": {
      "$oid": "655cc02ac86fa1fe91d7c726"
    },
    "selectedCar": {
      "$oid": "653a6650920751bfe05a2c6e"
    },
    "driverId": {
      "$oid": "655cc02a83f2b265c1e2199d"
    },
    "status": "complete",
    "createdAt": {
      "$date": "2023-08-13T02:14:25.000Z"
    },
    "updatedAt": {
      "$date": "2023-08-20T16:30:42.000Z"
    },
    "__v": 0
  },
  {
    "_id": {
      "$oid": "655cc02a63f96f3c063ca3f7"
    },
    "source": "Hẻm 156 Võ Văn Ngân Phường Bình Thọ, Thành Phố Thủ Đức, Thành Phố Hồ Chí Minh",
    "sourceCoordinates": [
      106.761436,
      10.84947
    ],
    "destination": "Hẻm 300 Lê Văn Việt Phường Tăng Nhơn Phú B, Thành Phố Thủ Đức, Thành Phố Hồ Chí Minh",
    "destinationCoordinates": [
      106.785464,
      10.843393
    ],
    "PhoneCustomer": "346680879",
    "NameCustomer": "Anh Tài",
    "distance": 9.66,
    "price": 37.13,
    "userId": {
      "$oid": "655cc02ae55a4627eb0f47a3"
    },
    "selectedCar": {
      "$oid": "653a6650920751bfe05a2c6e"
    },
    "driverId": {
      "$oid": "655cc02a83f2b265c1e2199d"
    },
    "status": "complete",
    "createdAt": {
      "$date": "2023-09-06T16:54:31.000Z"
    },
    "updatedAt": {
      "$date": "2023-09-09T06:50:25.000Z"
    },
    "__v": 0
  },
  {
    "_id": {
      "$oid": "655cc02a1f6604a7a3de5fe5"
    },
    "source": "Hẻm 156 Võ Văn Ngân Phường Bình Thọ, Thành Phố Thủ Đức, Thành Phố Hồ Chí Minh",
    "sourceCoordinates": [
      106.761436,
      10.84947
    ],
    "destination": "Hẻm 300 Lê Văn Việt Phường Tăng Nhơn Phú B, Thành Phố Thủ Đức, Thành Phố Hồ Chí Minh",
    "destinationCoordinates": [
      106.785464,
      10.843393
    ],
    "PhoneCustomer": "346680879",
    "NameCustomer": "Anh Tài",
    "distance": 1.16,
    "price": 43.93,
    "userId": {
      "$oid": "655cc02a128476f437c245bb"
    },
    "selectedCar": {
      "$oid": "653a6650920751bfe05a2c6e"
    },
    "driverId": {
      "$oid": "655cc02a6aed29622f3c850c"
    },
    "status": "complete",
    "createdAt": {
      "$date": "2023-09-07T07:26:56.000Z"
    },
    "updatedAt": {
      "$date": "2023-09-26T14:54:08.000Z"
    },
    "__v": 0
  },
  {
    "_id": {
      "$oid": "655cc02ae0d4726ebe2a7db8"
    },
    "source": "Hẻm 156 Võ Văn Ngân Phường Bình Thọ, Thành Phố Thủ Đức, Thành Phố Hồ Chí Minh",
    "sourceCoordinates": [
      106.761436,
      10.84947
    ],
    "destination": "Hẻm 300 Lê Văn Việt Phường Tăng Nhơn Phú B, Thành Phố Thủ Đức, Thành Phố Hồ Chí Minh",
    "destinationCoordinates": [
      106.785464,
      10.843393
    ],
    "PhoneCustomer": "346680879",
    "NameCustomer": "Anh Tài",
    "distance": 4.23,
    "price": 23.33,
    "userId": {
      "$oid": "655cc02ad0faee995c9b544f"
    },
    "selectedCar": {
      "$oid": "653a6650920751bfe05a2c6e"
    },
    "driverId": {
      "$oid": "655cc02a63968f4c919d59e9"
    },
    "status": "complete",
    "createdAt": {
      "$date": "2023-09-25T05:22:35.000Z"
    },
    "updatedAt": {
      "$date": "2023-09-25T07:32:01.000Z"
    },
    "__v": 0
  },
  {
    "_id": {
      "$oid": "655cc02ac98a0d764f0bb208"
    },
    "source": "Hẻm 156 Võ Văn Ngân Phường Bình Thọ, Thành Phố Thủ Đức, Thành Phố Hồ Chí Minh",
    "sourceCoordinates": [
      106.761436,
      10.84947
    ],
    "destination": "Hẻm 300 Lê Văn Việt Phường Tăng Nhơn Phú B, Thành Phố Thủ Đức, Thành Phố Hồ Chí Minh",
    "destinationCoordinates": [
      106.785464,
      10.843393
    ],
    "PhoneCustomer": "346680879",
    "NameCustomer": "Anh Tài",
    "distance": 6.42,
    "price": 41.4,
    "userId": {
      "$oid": "655cc02ace77e44ca44a937a"
    },
    "selectedCar": {
      "$oid": "653a6650920751bfe05a2c6e"
    },
    "driverId": {
      "$oid": "655cc02ade9796ac472085dc"
    },
    "status": "complete",
    "createdAt": {
      "$date": "2023-09-05T23:05:55.000Z"
    },
    "updatedAt": {
      "$date": "2023-09-15T16:38:21.000Z"
    },
    "__v": 0
  },
  {
    "_id": {
      "$oid": "655cc02aea6bf951e4edf182"
    },
    "source": "Hẻm 156 Võ Văn Ngân Phường Bình Thọ, Thành Phố Thủ Đức, Thành Phố Hồ Chí Minh",
    "sourceCoordinates": [
      106.761436,
      10.84947
    ],
    "destination": "Hẻm 300 Lê Văn Việt Phường Tăng Nhơn Phú B, Thành Phố Thủ Đức, Thành Phố Hồ Chí Minh",
    "destinationCoordinates": [
      106.785464,
      10.843393
    ],
    "PhoneCustomer": "346680879",
    "NameCustomer": "Anh Tài",
    "distance": 9.72,
    "price": 35.04,
    "userId": {
      "$oid": "655cc02a9c058ae8e2a7f7e7"
    },
    "selectedCar": {
      "$oid": "653a6650920751bfe05a2c6e"
    },
    "driverId": {
      "$oid": "655cc02a0ce288f905602e3d"
    },
    "status": "complete",
    "createdAt": {
      "$date": "2023-09-20T19:37:46.000Z"
    },
    "updatedAt": {
      "$date": "2023-09-16T19:26:42.000Z"
    },
    "__v": 0
  },
  {
    "_id": {
      "$oid": "655cc02a954276aa614b89f7"
    },
    "source": "Hẻm 156 Võ Văn Ngân Phường Bình Thọ, Thành Phố Thủ Đức, Thành Phố Hồ Chí Minh",
    "sourceCoordinates": [
      106.761436,
      10.84947
    ],
    "destination": "Hẻm 300 Lê Văn Việt Phường Tăng Nhơn Phú B, Thành Phố Thủ Đức, Thành Phố Hồ Chí Minh",
    "destinationCoordinates": [
      106.785464,
      10.843393
    ],
    "PhoneCustomer": "346680879",
    "NameCustomer": "Anh Tài",
    "distance": 7.67,
    "price": 49.41,
    "userId": {
      "$oid": "655cc02aeb334f3c51c64056"
    },
    "selectedCar": {
      "$oid": "653a6650920751bfe05a2c6e"
    },
    "driverId": {
      "$oid": "655cc02a83f2b265c1e2199d"
    },
    "status": "complete",
    "createdAt": {
      "$date": "2023-10-24T21:34:58.000Z"
    },
    "updatedAt": {
      "$date": "2023-10-11T15:16:29.000Z"
    },
    "__v": 0
  },
  {
    "_id": {
      "$oid": "655cc02a1c040e742e3ae830"
    },
    "source": "Hẻm 156 Võ Văn Ngân Phường Bình Thọ, Thành Phố Thủ Đức, Thành Phố Hồ Chí Minh",
    "sourceCoordinates": [
      106.761436,
      10.84947
    ],
    "destination": "Hẻm 300 Lê Văn Việt Phường Tăng Nhơn Phú B, Thành Phố Thủ Đức, Thành Phố Hồ Chí Minh",
    "destinationCoordinates": [
      106.785464,
      10.843393
    ],
    "PhoneCustomer": "346680879",
    "NameCustomer": "Anh Tài",
    "distance": 9.97,
    "price": 38.04,
    "userId": {
      "$oid": "655cc02a5fabab01e532244d"
    },
    "selectedCar": {
      "$oid": "653a6650920751bfe05a2c6e"
    },
    "driverId": {
      "$oid": "655cc02a048775a4adf1fe27"
    },
    "status": "complete",
    "createdAt": {
      "$date": "2023-10-13T04:33:31.000Z"
    },
    "updatedAt": {
      "$date": "2023-10-23T22:51:40.000Z"
    },
    "__v": 0
  },
  {
    "_id": {
      "$oid": "655cc02aed5a78d58e87eec8"
    },
    "source": "Hẻm 156 Võ Văn Ngân Phường Bình Thọ, Thành Phố Thủ Đức, Thành Phố Hồ Chí Minh",
    "sourceCoordinates": [
      106.761436,
      10.84947
    ],
    "destination": "Hẻm 300 Lê Văn Việt Phường Tăng Nhơn Phú B, Thành Phố Thủ Đức, Thành Phố Hồ Chí Minh",
    "destinationCoordinates": [
      106.785464,
      10.843393
    ],
    "PhoneCustomer": "346680879",
    "NameCustomer": "Anh Tài",
    "distance": 5.17,
    "price": 27.65,
    "userId": {
      "$oid": "655cc02a5fabab01e532244d"
    },
    "selectedCar": {
      "$oid": "653a6650920751bfe05a2c6e"
    },
    "driverId": {
      "$oid": "655cc02aee82d409d8d61dc5"
    },
    "status": "complete",
    "createdAt": {
      "$date": "2023-10-25T23:21:04.000Z"
    },
    "updatedAt": {
      "$date": "2023-10-25T11:30:53.000Z"
    },
    "__v": 0
  },
  {
    "_id": {
      "$oid": "655cc02a287ec1f3848790df"
    },
    "source": "Hẻm 156 Võ Văn Ngân Phường Bình Thọ, Thành Phố Thủ Đức, Thành Phố Hồ Chí Minh",
    "sourceCoordinates": [
      106.761436,
      10.84947
    ],
    "destination": "Hẻm 300 Lê Văn Việt Phường Tăng Nhơn Phú B, Thành Phố Thủ Đức, Thành Phố Hồ Chí Minh",
    "destinationCoordinates": [
      106.785464,
      10.843393
    ],
    "PhoneCustomer": "346680879",
    "NameCustomer": "Anh Tài",
    "distance": 5.57,
    "price": 26.22,
    "userId": {
      "$oid": "655cc02a4e638bae83ba4d43"
    },
    "selectedCar": {
      "$oid": "653a6650920751bfe05a2c6e"
    },
    "driverId": {
      "$oid": "655cc02a66c69a91b1b1e565"
    },
    "status": "complete",
    "createdAt": {
      "$date": "2023-10-18T09:12:35.000Z"
    },
    "updatedAt": {
      "$date": "2023-10-05T03:55:37.000Z"
    },
    "__v": 0
  },
  {
    "_id": {
      "$oid": "655cc02a4d1217d7d62ce1cc"
    },
    "source": "Hẻm 156 Võ Văn Ngân Phường Bình Thọ, Thành Phố Thủ Đức, Thành Phố Hồ Chí Minh",
    "sourceCoordinates": [
      106.761436,
      10.84947
    ],
    "destination": "Hẻm 300 Lê Văn Việt Phường Tăng Nhơn Phú B, Thành Phố Thủ Đức, Thành Phố Hồ Chí Minh",
    "destinationCoordinates": [
      106.785464,
      10.843393
    ],
    "PhoneCustomer": "346680879",
    "NameCustomer": "Anh Tài",
    "distance": 7.1,
    "price": 26.99,
    "userId": {
      "$oid": "655cc02a5c4bce359c16866c"
    },
    "selectedCar": {
      "$oid": "653a6650920751bfe05a2c6e"
    },
    "driverId": {
      "$oid": "655cc02ade9796ac472085dc"
    },
    "status": "complete",
    "createdAt": {
      "$date": "2023-10-28T03:06:04.000Z"
    },
    "updatedAt": {
      "$date": "2023-10-05T01:54:30.000Z"
    },
    "__v": 0
  },
  {
    "_id": {
      "$oid": "655cc02a9f34166f08ca3b67"
    },
    "source": "Hẻm 156 Võ Văn Ngân Phường Bình Thọ, Thành Phố Thủ Đức, Thành Phố Hồ Chí Minh",
    "sourceCoordinates": [
      106.761436,
      10.84947
    ],
    "destination": "Hẻm 300 Lê Văn Việt Phường Tăng Nhơn Phú B, Thành Phố Thủ Đức, Thành Phố Hồ Chí Minh",
    "destinationCoordinates": [
      106.785464,
      10.843393
    ],
    "PhoneCustomer": "346680879",
    "NameCustomer": "Anh Tài",
    "distance": 2.95,
    "price": 27.5,
    "userId": {
      "$oid": "655cc02a128476f437c245bb"
    },
    "selectedCar": {
      "$oid": "653a6650920751bfe05a2c6e"
    },
    "driverId": {
      "$oid": "655cc02a0ce288f905602e3d"
    },
    "status": "complete",
    "createdAt": {
      "$date": "2023-11-12T17:52:50.000Z"
    },
    "updatedAt": {
      "$date": "2023-11-18T10:06:10.000Z"
    },
    "__v": 0
  },
  {
    "_id": {
      "$oid": "655cc02a9770106fa2c7263c"
    },
    "source": "Hẻm 156 Võ Văn Ngân Phường Bình Thọ, Thành Phố Thủ Đức, Thành Phố Hồ Chí Minh",
    "sourceCoordinates": [
      106.761436,
      10.84947
    ],
    "destination": "Hẻm 300 Lê Văn Việt Phường Tăng Nhơn Phú B, Thành Phố Thủ Đức, Thành Phố Hồ Chí Minh",
    "destinationCoordinates": [
      106.785464,
      10.843393
    ],
    "PhoneCustomer": "346680879",
    "NameCustomer": "Anh Tài",
    "distance": 8.94,
    "price": 48.19,
    "userId": {
      "$oid": "655cc02a4d000b7dba5d11a1"
    },
    "selectedCar": {
      "$oid": "653a6650920751bfe05a2c6e"
    },
    "driverId": {
      "$oid": "655cc02a0ce288f905602e3d"
    },
    "status": "complete",
    "createdAt": {
      "$date": "2023-11-18T10:39:00.000Z"
    },
    "updatedAt": {
      "$date": "2023-11-13T15:52:30.000Z"
    },
    "__v": 0
  },
  {
    "_id": {
      "$oid": "655cc02a7c895467cbc1add7"
    },
    "source": "Hẻm 156 Võ Văn Ngân Phường Bình Thọ, Thành Phố Thủ Đức, Thành Phố Hồ Chí Minh",
    "sourceCoordinates": [
      106.761436,
      10.84947
    ],
    "destination": "Hẻm 300 Lê Văn Việt Phường Tăng Nhơn Phú B, Thành Phố Thủ Đức, Thành Phố Hồ Chí Minh",
    "destinationCoordinates": [
      106.785464,
      10.843393
    ],
    "PhoneCustomer": "346680879",
    "NameCustomer": "Anh Tài",
    "distance": 5.04,
    "price": 31.06,
    "userId": {
      "$oid": "655cc02a78ce7000c730fd09"
    },
    "selectedCar": {
      "$oid": "653a6650920751bfe05a2c6e"
    },
    "driverId": {
      "$oid": "655cc02ade9796ac472085dc"
    },
    "status": "complete",
    "createdAt": {
      "$date": "2023-11-13T16:55:28.000Z"
    },
    "updatedAt": {
      "$date": "2023-11-05T15:29:13.000Z"
    },
    "__v": 0
  },
  {
    "_id": {
      "$oid": "655cc02a8dea89f1c6e3bf19"
    },
    "source": "Hẻm 156 Võ Văn Ngân Phường Bình Thọ, Thành Phố Thủ Đức, Thành Phố Hồ Chí Minh",
    "sourceCoordinates": [
      106.761436,
      10.84947
    ],
    "destination": "Hẻm 300 Lê Văn Việt Phường Tăng Nhơn Phú B, Thành Phố Thủ Đức, Thành Phố Hồ Chí Minh",
    "destinationCoordinates": [
      106.785464,
      10.843393
    ],
    "PhoneCustomer": "346680879",
    "NameCustomer": "Anh Tài",
    "distance": 3.9,
    "price": 41.76,
    "userId": {
      "$oid": "655cc02af29321f55e90d13f"
    },
    "selectedCar": {
      "$oid": "653a6650920751bfe05a2c6e"
    },
    "driverId": {
      "$oid": "655cc02a6aed29622f3c850c"
    },
    "status": "complete",
    "createdAt": {
      "$date": "2023-11-15T16:38:02.000Z"
    },
    "updatedAt": {
      "$date": "2023-11-24T07:41:09.000Z"
    },
    "__v": 0
  },
  {
    "_id": {
      "$oid": "655cc02a20cf4d7cdb93e3a4"
    },
    "source": "Hẻm 156 Võ Văn Ngân Phường Bình Thọ, Thành Phố Thủ Đức, Thành Phố Hồ Chí Minh",
    "sourceCoordinates": [
      106.761436,
      10.84947
    ],
    "destination": "Hẻm 300 Lê Văn Việt Phường Tăng Nhơn Phú B, Thành Phố Thủ Đức, Thành Phố Hồ Chí Minh",
    "destinationCoordinates": [
      106.785464,
      10.843393
    ],
    "PhoneCustomer": "346680879",
    "NameCustomer": "Anh Tài",
    "distance": 4.02,
    "price": 38.98,
    "userId": {
      "$oid": "655cc02a5b36419997f89dd3"
    },
    "selectedCar": {
      "$oid": "653a6650920751bfe05a2c6e"
    },
    "driverId": {
      "$oid": "655cc02ade5d7e856328b8ff"
    },
    "status": "complete",
    "createdAt": {
      "$date": "2023-11-18T00:33:38.000Z"
    },
    "updatedAt": {
      "$date": "2023-11-06T14:02:14.000Z"
    },
    "__v": 0
  },
  {
    "_id": {
      "$oid": "655cc02a8e69d3b24dd63cfe"
    },
    "source": "Hẻm 156 Võ Văn Ngân Phường Bình Thọ, Thành Phố Thủ Đức, Thành Phố Hồ Chí Minh",
    "sourceCoordinates": [
      106.761436,
      10.84947
    ],
    "destination": "Hẻm 300 Lê Văn Việt Phường Tăng Nhơn Phú B, Thành Phố Thủ Đức, Thành Phố Hồ Chí Minh",
    "destinationCoordinates": [
      106.785464,
      10.843393
    ],
    "PhoneCustomer": "346680879",
    "NameCustomer": "Anh Tài",
    "distance": 8.37,
    "price": 44.16,
    "userId": {
      "$oid": "655cc02a6085af0e45e91738"
    },
    "selectedCar": {
      "$oid": "653a6650920751bfe05a2c6e"
    },
    "driverId": {
      "$oid": "655cc02ac54a9173713b5dd2"
    },
    "status": "complete",
    "createdAt": {
      "$date": "2023-12-28T13:04:47.000Z"
    },
    "updatedAt": {
      "$date": "2023-12-23T09:51:10.000Z"
    },
    "__v": 0
  },
  {
    "_id": {
      "$oid": "655cc02a59853c7876a6a78f"
    },
    "source": "Hẻm 156 Võ Văn Ngân Phường Bình Thọ, Thành Phố Thủ Đức, Thành Phố Hồ Chí Minh",
    "sourceCoordinates": [
      106.761436,
      10.84947
    ],
    "destination": "Hẻm 300 Lê Văn Việt Phường Tăng Nhơn Phú B, Thành Phố Thủ Đức, Thành Phố Hồ Chí Minh",
    "destinationCoordinates": [
      106.785464,
      10.843393
    ],
    "PhoneCustomer": "346680879",
    "NameCustomer": "Anh Tài",
    "distance": 7.52,
    "price": 29.53,
    "userId": {
      "$oid": "655cc02af29321f55e90d13f"
    },
    "selectedCar": {
      "$oid": "653a6650920751bfe05a2c6e"
    },
    "driverId": {
      "$oid": "655cc02a83f2b265c1e2199d"
    },
    "status": "complete",
    "createdAt": {
      "$date": "2023-12-13T06:02:45.000Z"
    },
    "updatedAt": {
      "$date": "2023-12-02T19:44:59.000Z"
    },
    "__v": 0
  },
  {
    "_id": {
      "$oid": "655cc02a580c9b505ba7d81d"
    },
    "source": "Hẻm 156 Võ Văn Ngân Phường Bình Thọ, Thành Phố Thủ Đức, Thành Phố Hồ Chí Minh",
    "sourceCoordinates": [
      106.761436,
      10.84947
    ],
    "destination": "Hẻm 300 Lê Văn Việt Phường Tăng Nhơn Phú B, Thành Phố Thủ Đức, Thành Phố Hồ Chí Minh",
    "destinationCoordinates": [
      106.785464,
      10.843393
    ],
    "PhoneCustomer": "346680879",
    "NameCustomer": "Anh Tài",
    "distance": 3.21,
    "price": 27.32,
    "userId": {
      "$oid": "655cc02af29321f55e90d13f"
    },
    "selectedCar": {
      "$oid": "653a6650920751bfe05a2c6e"
    },
    "driverId": {
      "$oid": "655cc02ade9796ac472085dc"
    },
    "status": "complete",
    "createdAt": {
      "$date": "2023-12-26T15:07:40.000Z"
    },
    "updatedAt": {
      "$date": "2023-12-07T01:44:28.000Z"
    },
    "__v": 0
  },
  {
    "_id": {
      "$oid": "655cc02a9be0516227b4d014"
    },
    "source": "Hẻm 156 Võ Văn Ngân Phường Bình Thọ, Thành Phố Thủ Đức, Thành Phố Hồ Chí Minh",
    "sourceCoordinates": [
      106.761436,
      10.84947
    ],
    "destination": "Hẻm 300 Lê Văn Việt Phường Tăng Nhơn Phú B, Thành Phố Thủ Đức, Thành Phố Hồ Chí Minh",
    "destinationCoordinates": [
      106.785464,
      10.843393
    ],
    "PhoneCustomer": "346680879",
    "NameCustomer": "Anh Tài",
    "distance": 9.77,
    "price": 49.24,
    "userId": {
      "$oid": "655cc02a040623191d0e8e81"
    },
    "selectedCar": {
      "$oid": "653a6650920751bfe05a2c6e"
    },
    "driverId": {
      "$oid": "655cc02a83f2b265c1e2199d"
    },
    "status": "complete",
    "createdAt": {
      "$date": "2023-12-03T23:09:55.000Z"
    },
    "updatedAt": {
      "$date": "2023-12-27T08:33:59.000Z"
    },
    "__v": 0
  },
  {
    "_id": {
      "$oid": "655cc02ac8de837a310e4a36"
    },
    "source": "Hẻm 156 Võ Văn Ngân Phường Bình Thọ, Thành Phố Thủ Đức, Thành Phố Hồ Chí Minh",
    "sourceCoordinates": [
      106.761436,
      10.84947
    ],
    "destination": "Hẻm 300 Lê Văn Việt Phường Tăng Nhơn Phú B, Thành Phố Thủ Đức, Thành Phố Hồ Chí Minh",
    "destinationCoordinates": [
      106.785464,
      10.843393
    ],
    "PhoneCustomer": "346680879",
    "NameCustomer": "Anh Tài",
    "distance": 9.52,
    "price": 44.39,
    "userId": {
      "$oid": "655cc02a8cc0faa9895617c3"
    },
    "selectedCar": {
      "$oid": "653a6650920751bfe05a2c6e"
    },
    "driverId": {
      "$oid": "655cc02a83f2b265c1e2199d"
    },
    "status": "complete",
    "createdAt": {
      "$date": "2023-12-13T09:47:46.000Z"
    },
    "updatedAt": {
      "$date": "2023-12-22T22:08:36.000Z"
    },
    "__v": 0
  }
]